code,parent,intitule,nom,capitale
dk-81,dk,Nordjylland,region,Aalborg
dk-82,dk,Midtjylland,region,Viborg
dk-83,dk,Syddanmark,region,Ribe
dk-84,dk,Hovedstaden,region,Copenhagen
dk-85,dk,Sjælland,region,Sorø
