code,nom,local,région
-,Language Neutral,
aa,afar,
ab,abkhaze,
ae,avestique,
af,afrikaans,
am,amharique,አማርኛ
ar,arabe,العربية
ar-ae,arabe,,UAE
ar-bh,arabe,,Bahrain
ar-dz,arabe,,Algérie
ar-eg,arabe,,Egypte
ar-iq,arabe,,Iraq
ar-jo,arabe,,Jordanie
ar-kw,arabe,,Koweit
ar-lb,arabe,,Liban
ar-ly,arabe,,Lybie
ar-ma,arabe,,Maroc
ar-om,arabe,,Oman
ar-qa,arabe,,Qatar
ar-sa,arabe,,Arabie Saoudite
ar-sy,arabe,,Syrie
ar-tn,arabe,,Tunisie
ar-ye,arabe,,Yemen
as,assamais,
ay,aymara,
az,azeri,
ba,bachkir,
be,biélorusse,Беларуѝкаѝ
bg,bulgare,Българѝки
bh,bihari,
bi,bichlamar,
bn,bengali,বাংলা
bo,tibétain,
br,breton,
bs,bosniaque,
ca,catalan,
ce,tchetchène,
ch,chamorro,
co,corse,
cs,tchèques,
cu,slavon d''église,
cv,tchouvache,
cy,gallois,cymraeg
da,danois,
de,allemand,
de-at,allemand,,Autriche
de-ch,allemand,,Suisse
de-li,allemand,,Liechtenstein
de-lu,allemand,,Luxembourg
dz,dzongkha,
el,grèc,
en,anglais,
en-au,anglais,,Australie
en-bz,anglais,,Belize
en-ca,anglais,,Canada
en-gb,anglais,,Grande Bretagne
en-ie,anglais,,Irlande
en-jm,anglais,,Jamaïque
en-nz,anglais,,Nouvelle Zélande
en-tt,anglais,,Trinidad
en-us,anglais,,État-Unis
en-za,anglais,,Afrique du Sud
eo,espérento,
es,espagnol,
es-ar,espagnol,,Argentine
es-bo,espagnol,,Bolivie
es-cl,espagnol,,Chili
es-co,espagnol,,Colombie
es-cr,espagnol,,Costa Rica
es-do,espagnol,,République dominicaine
es-ec,espagnol,,Équateur
es-gt,espagnol,,Guatemala
es-hn,espagnol,,Honduras
es-mx,espagnol,,Mexique
es-ni,espagnol,,Nicaragua
es-pa,espagnol,,Panama
es-pe,espagnol,,Pérou
es-pr,espagnol,,Puerto Rico
es-py,espagnol,,Paraguay
es-sv,espagnol,,Le Salvador
es-uy,espagnol,,Uruguay
es-ve,espagnol,,Vénézuéla
et,estonien,
eu,basque,
fa,farsi,ٝارسی
fi,finnois,
fj,fidjien,
fo,féroïen,
fr,français,
fr-be,français,,Belgique
fr-ca,français,,Canadien
fr-ch,français,,Suisse
fr-lu,français,,Luxembourg
fy,frison,
ga,irlandais,
gd,gaélique,,Écosse
gd-ie,gaélique,,Irlande
gl,galicien,
gn,guarani,
gu,goudjrati,ગ૝જરાતી
gv,manx, mannois
ha,haoussa,
he,hébreu,עברית
hi,hindi,हिनढ़दी
ho,hiri motu,
hr,croate,
hu,hongrois,
hy,arménien,
hz,herero,
ia,interlingua (langue auxiliaire internationale),
id,indonésien,
ie,interlingue,
ik,inupiaq,
in,indonésien,
is,islandais,
it,italien,italiano
it-ch,italien,,Suisse
iu,inuktitut,
ja,japonais,日本語
jw,javanais,
ka,géorgien,ქორთული
ki,kikuyu,
kj,kuanyama,
kk,Kazakh,
kl,groenlandais,
km,khmer,ភាសាឝ្មែរ
kn,kannada,ಕನೝನಡ
ko,coréen,한국어
ks,kashmiri,
ku,kurde,
kv,komi,
kw,cornique,
ky,kirghize,
la,latin,
lb,luxembourgeois,
ln,lingala,
lo,lao,
lt,lituanien,
lv,letton,
mg,malgache,
mh,marshall,
mi,maori,
mk,macédonien,
ml,malayalam,
mn,mongol,
mo,moldave,
mr,marathi,
ms,malais,
mt,maltais,
my,birman,
na,nauruan,
nb,norvégien bokmäl,
nd,ndébélé du Nord,
ne,nepalais,
ng,ndonga,
nl,néerlandais,
nl-be,néerlandais,,Belgique
nn,norvégien nynorsk,
no,norvégien (Nynorsk),
nr,ndébélé du Sud,
nv,navaho,
ny,nyanja; chichewa,
oc,occitan,
om,galla,
or,oriya,
os,ossète,
pa,pendjabi,
pi,pali,
pl,polonais,
ps,pachto,
pt,portugais,
pt-br,portugais,,Brésil
qu,quechua,
rm,rhéto-roman,
rn,rundi,
ro,roumain,română
ro-mo,roumain,,Moldavie
ru,russe,Руѝѝкий
ru-mo,russe,,Moldavie
rw,rwanda,
sa,sanskrit,संसढ़कृतमढ़
sb,sorbian,
sc,sarde,
sd,sindhi,
se,serbe,
sg,sango,
si,singhalais,
sk,slovaque,
sl,slovène,
sm,samoan,
sn,shona,
so,somali,
sq,albanais,
sr,serbe,
ss,swati,
st,sotho du Sud,
su,soundanais,
sv,suédois,
sv-fi,suédois,,Finlande
sw,swahili,
sx,sutu (Estonie),
sz,sami (Lappish),
ta,tamoul,
te,télougou,
tg,tadjik,
th,thaï,
ti,tigrigna,ትጝርኛ
tk,turkmène,
tl,tagalog,
tn,tswana,
to,tongan (Iles Tonga),
tr,turc,
ts,tsonga,
tt,tatar,
tw,twi,
ty,tahitien,
ug,ouïgour,
uk,ukrainien,
ur,ourdou,
uz,ouzbek,
ve,venda,
vi,vietnamien,
vo,volapük,
wo,wolof,
xh,Xhosa,
yi,Yiddish,
yo,yoruba,
za,zhuang,
zh,chinois,中文
zh-cn,chinois,,PRC
zh-hk,chinois,,Hong Kong
zh-sg,chinois,,Singapour
zh-tw,chinois,,Taiwan
zu,zoulou,
